Positive politikere eller negative nabolagsmasere? Stemningsanalyse av partiprogram
…
Hva er den gjennomsnittlige stemninga i tekstene?

df = inner_join(sentiment, df_programmer, by = c("tekst" = "term"))

#en utfordring her er at vi blander verdien på en variabel og antallet observasjoner
#bør ekspanderes

df_utvida = uncount(df, antall)

temp = count(df, tekst, sort = TRUE, wt = antall)
temp

## # A tibble: 644 x 2
##    tekst      n
##    <chr>  <dbl>
##  1 sikre    503
##  2 bedre    347
##  3 styrke   323
##  4 god      289
##  5 rette    273
##  6 ønsker   254
##  7 viktig   243
##  8 øke      187
##  9 større   181
## 10 godt     161
## # ... with 634 more rows
…
